Project 1
…
I made the joined data tidy by using pivot_longer(). Thus, the variables “2015”, “2010”, “2005”, and “2000” were combined as one under the name “year”. The values were assigned to the column “suiciderate”. This increased the number of observations from 405 to 1620, and decreased the number of variables from 17 to 15.

3) Wrangling

data%>%filter(year==2015)%>%select(Country, Sex, "Happiness Score", suiciderate)%>%mutate(rate=row_number(suiciderate))

## # A tibble: 405 x 5
##    Country     Sex        `Happiness Score` suiciderate  rate
##    <chr>       <chr>                  <dbl>       <dbl> <int>
##  1 Afghanistan Both sexes              3.58         7.1   170
##  2 Afghanistan Male                    3.58        10.9   250
##  3 Afghanistan Female                  3.58         3.1    46
##  4 Albania     Both sexes              4.96         3.8    63
##  5 Albania     Male                    4.96         5.3   109
##  6 Albania     Female                  4.96         2.4    27
##  7 Algeria     Both sexes              5.60         3.1    47
##  8 Algeria     Male                    5.60         5      99
##  9 Algeria     Female                  5.60         1.3     8
## 10 Angola      Both sexes              4.03        25.9   384
## # ... with 395 more rows

data%>%filter(year==2015)%>%group_by(Sex)%>%summarize(meansuicide=mean(suiciderate))%>%arrange(desc(meansuicide))

## # A tibble: 3 x 2
##   Sex        meansuicide
##   <chr>            <dbl>
## 1 Male             16.3 
## 2 Both sexes       10.5 
## 3 Female            5.21

data%>%group_by(Country,Sex)%>%summarize(sdsuicide=sd(suiciderate))

## # A tibble: 405 x 3
## # Groups:   Country [135]
##    Country     Sex        sdsuicide
##    <chr>       <chr>          <dbl>
##  1 Afghanistan Both sexes     0.250
##  2 Afghanistan Female         0.337
##  3 Afghanistan Male           0.379
##  4 Albania     Both sexes     1.28 
##  5 Albania     Female         0.506
##  6 Albania     Male           2.10 
##  7 Algeria     Both sexes     0.289
##  8 Algeria     Female         0.499
##  9 Algeria     Male           0.275
## 10 Angola      Both sexes     1.08 
## # ... with 395 more rows
…
